This is BibTeX, Version 0.99d (TeX Live 2015)
Capacity: max_strings=35307, hash_size=35307, hash_prime=30011
The top-level auxiliary file: acl2016.aux
The style file: acl2016.bst
Database file #1: references.bib
Warning--empty journal in Nguyen:15audience
You've used 10 entries,
            2490 wiz_defined-function locations,
            617 strings with 6771 characters,
and the built_in function-call counts, 4814 in all, are:
= -- 500
> -- 209
< -- 6
+ -- 74
- -- 72
* -- 336
:= -- 750
add.period$ -- 43
call.type$ -- 10
change.case$ -- 75
chr.to.int$ -- 10
cite$ -- 11
duplicate$ -- 216
empty$ -- 357
format.name$ -- 86
if$ -- 1039
int.to.chr$ -- 1
int.to.str$ -- 0
missing$ -- 10
newline$ -- 62
num.names$ -- 30
pop$ -- 100
preamble$ -- 1
purify$ -- 85
quote$ -- 0
skip$ -- 167
stack$ -- 0
substring$ -- 213
swap$ -- 72
text.length$ -- 6
text.prefix$ -- 0
top$ -- 0
type$ -- 80
warning$ -- 1
while$ -- 36
width$ -- 15
write$ -- 141
(There was 1 warning)
