\relax 
\providecommand{\transparent@use}[1]{}
\citation{Solorio:08}
\citation{Cotterell:14}
\citation{Solorio:14overview}
\citation{Nguyen:14word}
\citation{Hale:14,Eleta:14}
\citation{Jurgens:14}
\citation{Nguyen:15audience}
\citation{Tang:11}
\citation{Lui:11}
\bibdata{references}
\bibcite{Cotterell:14}{\citename {Cotterell \bgroup et al.\egroup }2014}
\bibcite{Eleta:14}{\citename {Eleta and Golbeck}2014}
\bibcite{Hale:14}{\citename {Hale}2014}
\bibcite{Jurgens:14}{\citename {Jurgens \bgroup et al.\egroup }2014}
\bibcite{Lui:11}{\citename {Lui and Baldwin}2011}
\bibcite{Nguyen:14word}{\citename {Nguyen and Dogruoz}2014}
\bibcite{Nguyen:15audience}{\citename {Nguyen \bgroup et al.\egroup }2015}
\bibcite{Solorio:08}{\citename {Solorio and Liu}2008}
\bibcite{Solorio:14overview}{\citename {Solorio \bgroup et al.\egroup }2014}
\bibcite{Tang:11}{\citename {Tang \bgroup et al.\egroup }2011}
\bibstyle{acl2016}
\providecommand*\caption@xref[2]{\@setref\relax\@undefined{#1}}
\newlabel{tab:datasets}{{1}{3}}
\newlabel{fig:style}{{1}{3}}
\newlabel{fig:network}{{2}{4}}
\newlabel{fig:postag}{{3}{5}}
\newlabel{fig:topicembed}{{4}{6}}
